{
  "current": {
    "color_account_bg": "#4b4f54",
    "color_account_text": "#ededed",
    "color_header_bg": "#ededed",
    "color_header_text": "#4b4f54",
    "color_body_bg": "#ededed",
    "color_body_text": "#4b4f54",
    "color_primary": "#000000",
    "color_splash": "#6ba3b9",
    "color_border": "#ededed",
    "homepage_background_light": "#ededed",
    "homepage_background_dark": "#4b4f54",
    "product_background_color": "#ededed",
    "product_slideshow_arrows": "#6ba3b9",
    "color_footer_bg": "#4b4f54",
    "color_footer_text": "#ededed",
    "color_footer_social_link": "#ededed",
    "type_header_font": "montserrat_n6",
    "type_heading_size": 100,
    "font_title_capitalize": false,
    "type_accent_font": "montserrat_n3",
    "type_accent_size": 100,
    "type_base_font": "montserrat_n3",
    "type_body_size": 110,
    "cart_type": "modal",
    "cart_show_on_click": true,
    "cart_vendor_enable": false,
    "cart_notes_enable": false,
    "cart_quantity": true,
    "cart_show_additional_buttons": false,
    "cart_continue_browsing": "shopify:\/\/collections\/all",
    "collection_text_alignment": "text-center",
    "product_grid_style": "hover",
    "image_hover_enable": true,
    "image_autoheight_enable": true,
    "tag_sellout": false,
    "tag_sale": false,
    "tag_new": false,
    "tag_new_limit": 14,
    "social_twitter_link": "https:\/\/twitter.com\/wearecasamera",
    "social_facebook_link": "https:\/\/www.facebook.com\/wearecasamera",
    "social_instagram_link": "https:\/\/www.instagram.com\/wearecasamera\/",
    "social_pinterest_link": "",
    "social_google_link": "",
    "social_youtube_link": "",
    "social_vimeo_link": "",
    "social_tumblr_link": "",
    "social_fancy_link": "",
    "product_social_enable": false,
    "share_enable_facebook": true,
    "share_enable_pinterest": true,
    "share_enable_google": false,
    "share_enable_twitter": true,
    "twittercard_handle": "",
    "social_home_image": "shopify:\/\/shop_images\/Website_Banner_2.png",
    "favicon": "shopify:\/\/shop_images\/CM-Favicon.png",
    "checkout_header_image": "",
    "checkout_logo_image": "shopify:\/\/shop_images\/Casamera-Brand_Guidelines2-22_e8b82e24-1bfa-4955-9b16-ff682bd110be.png",
    "checkout_logo_position": "left",
    "checkout_logo_size": "medium",
    "checkout_body_background_image": "",
    "checkout_body_background_color": "#fff",
    "checkout_input_background_color_mode": "white",
    "checkout_sidebar_background_image": "",
    "checkout_sidebar_background_color": "#ededed",
    "checkout_heading_font": "Helvetica Neue",
    "checkout_body_font": "Helvetica Neue",
    "checkout_accent_color": "#6ba3b9",
    "checkout_button_color": "#6ba3b9",
    "checkout_error_color": "#585e71",
    "checkout_use_header_image": false,
    "checkout_logo": "",
    "checkout_use_body_background_image": false,
    "checkout_use_sidebar_background_image": false,
    "sections": {
      "header": {
        "type": "header",
        "settings": {
          "logo": "shopify:\/\/shop_images\/Copy_of_Copy_of_Untitled_2.png",
          "logo_max_limit": 265,
          "main_menu_linklist": "header-menu",
          "height": "header--medium",
          "meganav_link": "",
          "header_message": "Free shipping on all U.S orders, Obviously.",
          "header_message_url": "shopify:\/\/collections\/wearecasamera",
          "header_enable_account": true,
          "header_enable_search": true,
          "search_only_products": false
        }
      },
      "footer": {
        "type": "footer",
        "blocks": {
          "linklist": {
            "type": "linklist",
            "settings": {
              "linklist": "header-menu"
            }
          },
          "text": {
            "type": "text",
            "settings": {
              "title": "About Us",
              "text": "<p>CASAMERA was created by two quality-obsessed best friends with the goal to create bathroom essentials that perform as great as they look. Our mission is authenticity after comfort.<\/p>"
            }
          },
          "newsletter": {
            "type": "newsletter",
            "settings": {
              "richtext": "<p>Sign up for discount codes and cool tidbits. <\/p>"
            }
          }
        },
        "block_order": [
          "linklist",
          "text",
          "newsletter"
        ],
        "settings": {
          "footer_secondary_linklist": "footer",
          "footer_payment_enable": false,
          "footer_social_enable": true
        }
      },
      "product": {
        "type": "product",
        "settings": {
          "product_breadcrumbs": true,
          "show_price_above": true,
          "form_position": "below",
          "show_quantity": true,
          "enable_payment_button": true,
          "product_show_vendor": false,
          "zoom_enable": true,
          "related_products_enable": true,
          "product_reviews_enable": true,
          "info_page": "sizes",
          "tabs_position": "below"
        }
      },
      "collection": {
        "type": "collection",
        "blocks": {
          "4fd5ebc9-be8c-432c-bfdd-580b0ed36f01": {
            "type": "tag_group",
            "settings": {
              "title": "",
              "group_tags": ""
            }
          },
          "50dd2def-3c22-450c-b9f9-a281c45703e1": {
            "type": "tag_group",
            "settings": {
              "title": "",
              "group_tags": ""
            }
          },
          "bdf4b6d1-faca-437f-93e0-8f1c50d11b29": {
            "type": "tag_group",
            "settings": {
              "title": "",
              "group_tags": ""
            }
          }
        },
        "block_order": [
          "4fd5ebc9-be8c-432c-bfdd-580b0ed36f01",
          "50dd2def-3c22-450c-b9f9-a281c45703e1",
          "bdf4b6d1-faca-437f-93e0-8f1c50d11b29"
        ],
        "settings": {
          "grid_setting_large": 4,
          "grid_setting_medium": 3,
          "grid_setting_small": 3,
          "collection_sorting": false,
          "align_text": "text-center",
          "show_title": false,
          "show_title_below": false,
          "show_description": true,
          "show_description_below": false,
          "description_font_size": "rte rte--large",
          "show_image": true,
          "image_height": "use_screen_one_third",
          "overlay_opacity": 0,
          "text_color": "homepage--dark",
          "parallax": true,
          "hide_sidebar": true,
          "collection_custom_nav_list": "",
          "collection_standard_nav": false,
          "collection_tag_nav": false
        }
      },
      "blog": {
        "type": "blog",
        "settings": {
          "layout": "grid",
          "blog_show_meta": false,
          "image": "",
          "overlay_opacity": 0,
          "text_color": "homepage--light",
          "parallax": true,
          "tags": false
        }
      },
      "article": {
        "type": "article",
        "settings": {
          "blog_show_meta": false,
          "tags": true,
          "social": true,
          "image_height": "use_screen_one_half",
          "parallax": true,
          "sidebar_tags": true,
          "recent": true
        }
      },
      "index-banner-image": {
        "type": "index-banner-image",
        "settings": {
          "image": "shopify:\/\/shop_images\/new_banner.jpg",
          "height": "use_screen_one_half",
          "overlay_opacity": 30,
          "parallax": false,
          "title": "ethically made in the nile delta",
          "description": "combining century-old practices with modern day engineering to achieve peak performance, serious softness and durability for years to come.",
          "text_align": "text-center",
          "color": "homepage--white",
          "link_text": "",
          "link": "",
          "button_style": "btn btn--large btn--clear uppercase",
          "image_mobile": "shopify:\/\/shop_images\/new_banner.jpg"
        }
      },
      "index-product": {
        "type": "index-product",
        "settings": {
          "title": "Featured product",
          "home_product": "",
          "homepage_product_color": "homepage--white",
          "show_quantity": true,
          "enable_payment_button": true,
          "product_show_vendor": false,
          "zoom_enable": false,
          "info_page": "",
          "tabs_position": "below"
        }
      },
      "index-collection": {
        "type": "index-collection",
        "settings": {
          "title": "#wearecasamera",
          "collection": "wearecasamera",
          "grid": 6,
          "rows": 1,
          "homepage_collection_color": "homepage--light",
          "show_view_all": true
        }
      },
      "index-instagram": {
        "type": "index-instagram",
        "disabled": true,
        "settings": {
          "title": "Instagram",
          "homepage_instagram_color": "homepage--light",
          "token": "7143280666.b534787.b64cee50faad4202a1c4dddf89ad3bf5",
          "instagram_photo_count": 4,
          "instagram_grid_setting_large": 4,
          "instagram_grid_setting_medium": 3,
          "instagram_grid_setting_small": 3
        }
      },
      "index-slideshow": {
        "type": "index-slideshow",
        "blocks": {
          "80081d8e-c5b3-426d-9f91-0d3e38def926": {
            "type": "image",
            "settings": {
              "image": "shopify:\/\/shop_images\/Website_Banner_3bb5fb0c-ebcf-45e0-a8ef-4f0afa09eb67.png",
              "overlay_opacity": 15,
              "title": "",
              "description": "",
              "text_align": "text-center",
              "color": "homepage--white",
              "link_text": "Learn more",
              "link": "https:\/\/www.indiegogo.com\/projects\/the-body-shower-scrubber-by-casamera\/",
              "bk-preorders": "",
              "button_style": "btn btn--large btn--clear btn--square uppercase",
              "image_mobile": "shopify:\/\/shop_images\/Website_Banner_3bb5fb0c-ebcf-45e0-a8ef-4f0afa09eb67.png"
            }
          },
          "ae77e966-5f96-4a1a-9c23-584b8dfca83b": {
            "type": "image",
            "settings": {
              "image": "shopify:\/\/shop_images\/Untitled_design_1_ad87401a-2463-4d72-b8a8-a24c8f4a6333.png",
              "overlay_opacity": 0,
              "title": "Denim.",
              "description": "",
              "text_align": "text-left",
              "color": "homepage--splash",
              "link_text": "now available 💦",
              "link": "shopify:\/\/collections\/wearecasamera",
              "bk-preorders": "",
              "button_style": "btn btn--large btn--clear btn--square uppercase",
              "image_mobile": "shopify:\/\/shop_images\/CASA_3.0_STORY_3.png"
            }
          },
          "4d5e5c9d-2e60-4786-8879-218c69c4aeb0": {
            "type": "image",
            "settings": {
              "image": "shopify:\/\/shop_images\/Website_Banner_6.png",
              "overlay_opacity": 0,
              "title": "",
              "description": "",
              "text_align": "text-center",
              "color": "homepage--white",
              "link_text": "#wearecasamera",
              "link": "shopify:\/\/collections\/wearecasamera",
              "bk-preorders": "",
              "button_style": "btn btn--large btn--clear btn--square uppercase",
              "image_mobile": "shopify:\/\/shop_images\/3_4f1fe10e-eede-4359-9790-7cf52d50c371.png"
            }
          }
        },
        "block_order": [
          "80081d8e-c5b3-426d-9f91-0d3e38def926",
          "ae77e966-5f96-4a1a-9c23-584b8dfca83b",
          "4d5e5c9d-2e60-4786-8879-218c69c4aeb0"
        ],
        "settings": {
          "autoplay": true,
          "autoplay_speed": 4,
          "height": "use_screen_full"
        }
      },
      "index-logos": {
        "type": "index-logos",
        "blocks": {
          "index-logos-0": {
            "type": "logo_image",
            "settings": {
              "image": "shopify:\/\/shop_images\/4_84b7c98a-0d2a-42cc-82a3-599d15f85333.png",
              "link": ""
            }
          },
          "1565263206586": {
            "type": "logo_image",
            "settings": {
              "image": "shopify:\/\/shop_images\/3_86a20a01-e10b-4d89-9d7e-93e03a50bb78.png",
              "link": ""
            }
          },
          "index-logos-2": {
            "type": "logo_image",
            "settings": {
              "image": "shopify:\/\/shop_images\/2_5868dc52-858f-4d39-b554-3f8d33d03bc8.png",
              "link": ""
            }
          },
          "33d1fc84-314f-4fe1-997e-75987ccbd194": {
            "type": "logo_image",
            "settings": {
              "image": "shopify:\/\/shop_images\/1_78bbd1b7-3472-472d-a3fe-24ec68992dbf.png",
              "link": ""
            }
          }
        },
        "block_order": [
          "index-logos-0",
          "1565263206586",
          "index-logos-2",
          "33d1fc84-314f-4fe1-997e-75987ccbd194"
        ],
        "settings": {
          "title": "As Featured On",
          "homepage_logos_bg_color": "homepage--light"
        }
      },
      "1556705928817": {
        "type": "index-richtext",
        "settings": {
          "title": "Happiness Guarantee",
          "home_page_richtext": "<p>we stand behind our products all the way. If you don&#x27;t love your robe or towel, we will replace it right away or refund your order. just reach out and let us know. <strong>we&#x27;re here for you.<\/strong><\/p><p><\/p><p><\/p><p><\/p><p><\/p><p><\/p><p><\/p>",
          "homepage_page_color": "homepage--light"
        }
      },
      "page-images": {
        "type": "page-images",
        "settings": {
          "parallax": false,
          "image_height": "use_image",
          "overlay_opacity": 0,
          "text_color": "homepage--white"
        }
      },
      "list-collections": {
        "type": "list-collections",
        "blocks": {
          "1565484591025": {
            "type": "collection",
            "settings": {
              "collection": ""
            }
          }
        },
        "block_order": [
          "1565484591025"
        ],
        "settings": {
          "display_type": "all",
          "grid": 3,
          "rows": 1
        }
      },
      "1574363657283": {
        "type": "index-signup",
        "settings": {
          "enable_section": true
        }
      },
      "1596734635334": {
        "type": "index-richtext",
        "settings": {
          "title": "Join us on instagram",
          "home_page_richtext": "<p>@WeAreCasamera<\/p>",
          "homepage_page_color": "homepage--white"
        }
      },
      "collection-list": {
        "type": "collection-list",
        "settings": {
          "collection_custom_nav_list": "",
          "collection_standard_nav": false,
          "collection_type_nav": false,
          "collection_vendor_nav": false,
          "collection_tag_nav": false,
          "collection_sorting": true,
          "align_text": "text-center",
          "show_title": true,
          "show_title_below": false,
          "show_description": true,
          "show_description_below": false,
          "description_font_size": "rte rte--large",
          "show_image": true,
          "image_height": "use_screen_one_third",
          "overlay_opacity": 20,
          "text_color": "homepage--white",
          "parallax": false
        }
      }
    },
    "content_for_index": [
      "index-slideshow",
      "index-logos",
      "index-collection",
      "1556705928817",
      "1574363657283",
      "index-banner-image",
      "1596734635334"
    ]
  },
  "presets": {
    "Light": {
      "color_account_bg": "#f3f3f3",
      "color_account_text": "#656565",
      "color_header_bg": "#ffffff",
      "color_header_text": "#656565",
      "color_body_bg": "#ffffff",
      "color_body_text": "#656565",
      "color_primary": "#585e71",
      "color_splash": "#f4a482",
      "color_border": "#f7f7f7",
      "homepage_background_light": "#f7f7f7",
      "homepage_background_dark": "#2e3438",
      "product_background_color": "#FFFFFF",
      "product_slideshow_arrows": "#cccccc",
      "color_footer_bg": "#ffffff",
      "color_footer_text": "#656565",
      "color_footer_social_link": "#a9a9a9",
      "type_header_font": "megrim_n4",
      "font_title_capitalize": true,
      "type_accent_font": "questrial_n4",
      "type_base_font": "harmonia_sans_n4",
      "type_body_size": 100,
      "collection_text_alignment": "text-center",
      "product_grid_style": "hover",
      "checkout_use_body_background_image": false,
      "checkout_body_background_color": "#fff",
      "checkout_input_background_color_mode": "white",
      "checkout_sidebar_background_color": "#fafafa",
      "checkout_heading_font": "Helvetica Neue",
      "checkout_body_font": "Helvetica Neue",
      "checkout_accent_color": "#E37648",
      "checkout_button_color": "#f4a482",
      "checkout_error_color": "#585e71"
    },
    "Bright": {
      "color_account_bg": "#000000",
      "color_account_text": "#ffffff",
      "color_header_bg": "#ffffff",
      "color_header_text": "#333333",
      "color_body_bg": "#ffffff",
      "color_body_text": "#000000",
      "color_primary": "#333333",
      "color_splash": "#1391a4",
      "color_border": "#cccccc",
      "homepage_background_light": "#f7f7f7",
      "homepage_background_dark": "#2e3438",
      "product_background_color": "#f6f6f6",
      "product_slideshow_arrows": "#cccccc",
      "color_footer_bg": "#f2f2f2",
      "color_footer_text": "#333333",
      "color_footer_social_link": "#2e3438",
      "type_header_font": "oswald_n4",
      "type_heading_size": 100,
      "font_title_capitalize": true,
      "type_accent_font": "montserrat_n5",
      "type_accent_size": 100,
      "type_base_font": "sabon_next_n4",
      "type_body_size": 110,
      "collection_text_alignment": "text-center",
      "product_grid_style": "hover",
      "checkout_use_body_background_image": false,
      "checkout_body_background_color": "#fff",
      "checkout_input_background_color_mode": "white",
      "checkout_sidebar_background_color": "#fafafa",
      "checkout_heading_font": "Helvetica Neue",
      "checkout_body_font": "Helvetica Neue",
      "checkout_accent_color": "#1391a4",
      "checkout_button_color": "#1391a4",
      "checkout_error_color": "#DE7878"
    },
    "Dark": {
      "color_account_bg": "#212121",
      "color_account_text": "#d4d4d4",
      "color_header_bg": "#353535",
      "color_header_text": "#ffffff",
      "color_body_bg": "#ffffff",
      "color_body_text": "#3c3c3c",
      "color_primary": "#000000",
      "color_splash": "#e73131",
      "color_border": "#cfcfcf",
      "homepage_background_light": "#f7f7f7",
      "homepage_background_dark": "#585858",
      "product_background_color": "#ffffff",
      "product_slideshow_arrows": "#cfcfcf",
      "color_footer_bg": "#383838",
      "color_footer_text": "#e3e3e3",
      "color_footer_social_link": "#767676",
      "type_header_font": "itc_caslon_no_224_n7",
      "font_title_capitalize": false,
      "type_accent_font": "avenir_next_n4",
      "type_base_font": "avenir_next_n4",
      "type_body_size": 100,
      "collection_text_alignment": "text-center",
      "product_grid_style": "under",
      "checkout_use_body_background_image": false,
      "checkout_body_background_color": "#fff",
      "checkout_input_background_color_mode": "white",
      "checkout_sidebar_background_color": "#fafafa",
      "checkout_heading_font": "Open Sans",
      "checkout_body_font": "Open Sans",
      "checkout_accent_color": "#8b1e1e",
      "checkout_button_color": "#e73131",
      "checkout_error_color": "#ff862b"
    }
  }
}